{
  "name": "klauwd-users",
  "version": "0.1.0",
  "author": "srobroek",
  "summary": "Managed klauwd.com user resources",
  "license": "Apache 2.0",
  "source": "git@bitbucket.org:srobroek/klauwd-puppet-users.git",
  "project_page": "",
  "issues_url": "",
  "dependencies": [
    {
      "name": "puppetlabs-stdlib",
      "version_requirement": ">= 1.0.0"
    }
  ]
}
